%!PS-Adobe-2.0 EPSF-1.2
%%Creator: MATLAB, The Mathworks, Inc.
%%Title: ./C_patrick_color.eps
%%CreationDate: 05/21/2008  22:14:51
%%DocumentNeededFonts: Helvetica
%%DocumentProcessColors: Cyan Magenta Yellow Black
%%Pages: 1
%%BoundingBox:   117   215   499   589
%%EndComments

%%BeginProlog
% MathWorks dictionary
/MathWorks 160 dict begin
% definition operators
/bdef {bind def} bind def
/ldef {load def} bind def
/xdef {exch def} bdef
/xstore {exch store} bdef
% operator abbreviations
/c  /clip ldef
/cc /concat ldef
/cp /closepath ldef
/gr /grestore ldef
/gs /gsave ldef
/mt /moveto ldef
/np /newpath ldef
/cm /currentmatrix ldef
/sm /setmatrix ldef
/rm /rmoveto ldef
/rl /rlineto ldef
/s {show newpath} bdef
/sc {setcmykcolor} bdef
/sr /setrgbcolor ldef
/sg /setgray ldef
/w /setlinewidth ldef
/j /setlinejoin ldef
/cap /setlinecap ldef
/rc {rectclip} bdef
/rf {rectfill} bdef
% page state control
/pgsv () def
/bpage {/pgsv save def} bdef
/epage {pgsv restore} bdef
/bplot /gsave ldef
/eplot {stroke grestore} bdef
% orientation switch
/portraitMode 0 def /landscapeMode 1 def /rotateMode 2 def
% coordinate system mappings
/dpi2point 0 def
% font control
/FontSize 0 def
/FMS {/FontSize xstore findfont [FontSize 0 0 FontSize neg 0 0]
  makefont setfont} bdef
/reencode {exch dup where {pop load} {pop StandardEncoding} ifelse
  exch dup 3 1 roll findfont dup length dict begin
  { 1 index /FID ne {def}{pop pop} ifelse } forall
  /Encoding exch def currentdict end definefont pop} bdef
/isroman {findfont /CharStrings get /Agrave known} bdef
/FMSR {3 1 roll 1 index dup isroman {reencode} {pop pop} ifelse
  exch FMS} bdef
/csm {1 dpi2point div -1 dpi2point div scale neg translate
 dup landscapeMode eq {pop -90 rotate}
  {rotateMode eq {90 rotate} if} ifelse} bdef
% line types: solid, dotted, dashed, dotdash
/SO { [] 0 setdash } bdef
/DO { [.5 dpi2point mul 4 dpi2point mul] 0 setdash } bdef
/DA { [6 dpi2point mul] 0 setdash } bdef
/DD { [.5 dpi2point mul 4 dpi2point mul 6 dpi2point mul 4
  dpi2point mul] 0 setdash } bdef
% macros for lines and objects
/L {lineto stroke} bdef
/MP {3 1 roll moveto 1 sub {rlineto} repeat} bdef
/AP {{rlineto} repeat} bdef
/PDlw -1 def
/W {/PDlw currentlinewidth def setlinewidth} def
/PP {closepath eofill} bdef
/DP {closepath stroke} bdef
/MR {4 -2 roll moveto dup  0 exch rlineto exch 0 rlineto
  neg 0 exch rlineto closepath} bdef
/FR {MR stroke} bdef
/PR {MR fill} bdef
/L1i {{currentfile picstr readhexstring pop} image} bdef
/tMatrix matrix def
/MakeOval {newpath tMatrix currentmatrix pop translate scale
0 0 1 0 360 arc tMatrix setmatrix} bdef
/FO {MakeOval stroke} bdef
/PO {MakeOval fill} bdef
/PD {currentlinewidth 2 div 0 360 arc fill
   PDlw -1 eq not {PDlw w /PDlw -1 def} if} def
/FA {newpath tMatrix currentmatrix pop translate scale
  0 0 1 5 -2 roll arc tMatrix setmatrix stroke} bdef
/PA {newpath tMatrix currentmatrix pop	translate 0 0 moveto scale
  0 0 1 5 -2 roll arc closepath tMatrix setmatrix fill} bdef
/FAn {newpath tMatrix currentmatrix pop translate scale
  0 0 1 5 -2 roll arcn tMatrix setmatrix stroke} bdef
/PAn {newpath tMatrix currentmatrix pop translate 0 0 moveto scale
  0 0 1 5 -2 roll arcn closepath tMatrix setmatrix fill} bdef
/vradius 0 def /hradius 0 def /lry 0 def
/lrx 0 def /uly 0 def /ulx 0 def /rad 0 def
/MRR {/vradius xdef /hradius xdef /lry xdef /lrx xdef /uly xdef
  /ulx xdef newpath tMatrix currentmatrix pop ulx hradius add uly
  vradius add translate hradius vradius scale 0 0 1 180 270 arc 
  tMatrix setmatrix lrx hradius sub uly vradius add translate
  hradius vradius scale 0 0 1 270 360 arc tMatrix setmatrix
  lrx hradius sub lry vradius sub translate hradius vradius scale
  0 0 1 0 90 arc tMatrix setmatrix ulx hradius add lry vradius sub
  translate hradius vradius scale 0 0 1 90 180 arc tMatrix setmatrix
  closepath} bdef
/FRR {MRR stroke } bdef
/PRR {MRR fill } bdef
/MlrRR {/lry xdef /lrx xdef /uly xdef /ulx xdef /rad lry uly sub 2 div def
  newpath tMatrix currentmatrix pop ulx rad add uly rad add translate
  rad rad scale 0 0 1 90 270 arc tMatrix setmatrix lrx rad sub lry rad
  sub translate rad rad scale 0 0 1 270 90 arc tMatrix setmatrix
  closepath} bdef
/FlrRR {MlrRR stroke } bdef
/PlrRR {MlrRR fill } bdef
/MtbRR {/lry xdef /lrx xdef /uly xdef /ulx xdef /rad lrx ulx sub 2 div def
  newpath tMatrix currentmatrix pop ulx rad add uly rad add translate
  rad rad scale 0 0 1 180 360 arc tMatrix setmatrix lrx rad sub lry rad
  sub translate rad rad scale 0 0 1 0 180 arc tMatrix setmatrix
  closepath} bdef
/FtbRR {MtbRR stroke } bdef
/PtbRR {MtbRR fill } bdef
/stri 6 array def /dtri 6 array def
/smat 6 array def /dmat 6 array def
/tmat1 6 array def /tmat2 6 array def /dif 3 array def
/asub {/ind2 exch def /ind1 exch def dup dup
  ind1 get exch ind2 get sub exch } bdef
/tri_to_matrix {
  2 0 asub 3 1 asub 4 0 asub 5 1 asub
  dup 0 get exch 1 get 7 -1 roll astore } bdef
/compute_transform {
  dmat dtri tri_to_matrix tmat1 invertmatrix 
  smat stri tri_to_matrix tmat2 concatmatrix } bdef
/ds {stri astore pop} bdef
/dt {dtri astore pop} bdef
/db {2 copy /cols xdef /rows xdef mul dup string
  currentfile exch readhexstring pop
  /bmap xdef pop pop} bdef
/it {gs np dtri aload pop moveto lineto lineto cp c
  cols rows 8 compute_transform 
  {bmap} image gr}bdef
/il {newpath moveto lineto stroke}bdef
currentdict end def
%%EndProlog

%%BeginSetup
MathWorks begin

0 cap

end
%%EndSetup

%%Page: 1 1
%%BeginPageSetup
%%PageBoundingBox:   117   215   499   589
MathWorks begin
bpage
%%EndPageSetup

%%BeginObject: obj1
bplot

/dpi2point 12 def
portraitMode 0216 7344 csm

 1195   273  4579  4488 MR c np
127 dict begin %Colortable dictionary
/c0 { 0.000000 0.000000 0.000000 sr} bdef
/c1 { 1.000000 1.000000 1.000000 sr} bdef
/c2 { 0.900000 0.000000 0.000000 sr} bdef
/c3 { 0.000000 0.820000 0.000000 sr} bdef
/c4 { 0.000000 0.000000 0.800000 sr} bdef
/c5 { 0.910000 0.820000 0.320000 sr} bdef
/c6 { 1.000000 0.260000 0.820000 sr} bdef
/c7 { 0.000000 0.820000 0.820000 sr} bdef
c0
1 j
1 sg
   0    0 6918 5186 PR
6 w
0 4227 4226 0 0 -4227 1466 4615 4 MP
PP
-4226 0 0 4227 4226 0 0 -4227 1466 4615 5 MP stroke
4 w
DO
SO
6 w
0 sg
1466 4615 mt 5692 4615 L
1466 4615 mt 1466  388 L
1466 4615 mt 1466 4572 L
%%IncludeResource: font Helvetica
/Helvetica /ISOLatin1Encoding 120 FMSR

1363 4760 mt 
(-1) s
1889 4615 mt 1889 4572 L
1736 4760 mt 
(-0.8) s
2311 4615 mt 2311 4572 L
2158 4760 mt 
(-0.6) s
2734 4615 mt 2734 4572 L
2581 4760 mt 
(-0.4) s
3156 4615 mt 3156 4572 L
3003 4760 mt 
(-0.2) s
3579 4615 mt 3579 4572 L
3546 4760 mt 
(0) s
4002 4615 mt 4002 4572 L
3919 4760 mt 
(0.2) s
4424 4615 mt 4424 4572 L
4341 4760 mt 
(0.4) s
4847 4615 mt 4847 4572 L
4764 4760 mt 
(0.6) s
5269 4615 mt 5269 4572 L
5186 4760 mt 
(0.8) s
5692 4615 mt 5692 4572 L
5659 4760 mt 
(1) s
1466 4615 mt 1508 4615 L
1295 4659 mt 
(-1) s
1466 4192 mt 1508 4192 L
1195 4236 mt 
(-0.8) s
1466 3769 mt 1508 3769 L
1195 3813 mt 
(-0.6) s
1466 3347 mt 1508 3347 L
1195 3391 mt 
(-0.4) s
1466 2924 mt 1508 2924 L
1195 2968 mt 
(-0.2) s
1466 2501 mt 1508 2501 L
1365 2545 mt 
(0) s
1466 2079 mt 1508 2079 L
1265 2123 mt 
(0.2) s
1466 1656 mt 1508 1656 L
1265 1700 mt 
(0.4) s
1466 1234 mt 1508 1234 L
1265 1278 mt 
(0.6) s
1466  811 mt 1508  811 L
1265  855 mt 
(0.8) s
1466  388 mt 1508  388 L
1365  432 mt 
(1) s
gs 1466 388 4227 4228 MR c np
/c8 { 1.000000 0.937255 0.000000 sr} bdef
c8
-145 0 160 -47 3768 2548 3 MP
PP
0 sg
-15 47 -145 0 160 -47 3768 2548 4 MP stroke
c8
318 109 -214 450 4470 2501 3 MP
PP
0 sg
-104 -559 318 109 -214 450 4470 2501 4 MP stroke
c8
54 403 -275 -207 5244 3425 3 MP
PP
0 sg
221 -196 54 403 -275 -207 5244 3425 4 MP stroke
c8
84 38 -84 58 3579 2298 3 MP
PP
0 sg
0 -96 84 38 -84 58 3579 2298 4 MP stroke
c8
64 0 -46 60 3518 2441 3 MP
PP
0 sg
-18 -60 64 0 -46 60 3518 2441 4 MP stroke
c8
-82 -215 264 0 4107 4615 3 MP
PP
0 sg
-182 215 -82 -215 264 0 4107 4615 4 MP stroke
c8
-151 -301 325 0 2688 2501 3 MP
PP
0 sg
-174 301 -151 -301 325 0 2688 2501 4 MP stroke
c8
-299 278 35 -278 3843 4615 3 MP
PP
0 sg
264 0 -299 278 35 -278 3843 4615 4 MP stroke
c8
445 295 -323 119 2077 2087 3 MP
PP
0 sg
-122 -414 445 295 -323 119 2077 2087 4 MP stroke
c8
-167 -150 167 5 3579 2850 3 MP
PP
0 sg
0 145 -167 -150 167 5 3579 2850 4 MP stroke
c8
182 -215 -16 318 4123 4297 3 MP
PP
0 sg
-166 -103 182 -215 -16 318 4123 4297 4 MP stroke
c8
-280 171 0 -326 3579 1936 3 MP
PP
0 sg
280 155 -280 171 0 -326 3579 1936 4 MP stroke
c8
155 -338 299 455 3579 3882 3 MP
PP
0 sg
-454 -117 155 -338 299 455 3579 3882 4 MP stroke
c8
108 88 -108 57 3579 2153 3 MP
PP
0 sg
0 -145 108 88 -108 57 3579 2153 4 MP stroke
c8
245 -40 -155 338 4033 3999 3 MP
PP
0 sg
-90 -298 245 -40 -155 338 4033 3999 4 MP stroke
c8
0 96 -78 27 3657 2582 3 MP
PP
0 sg
78 -123 0 96 -78 27 3657 2582 4 MP stroke
c8
-288 295 -445 -295 2199 2501 3 MP
PP
0 sg
733 0 -288 295 -445 -295 2199 2501 4 MP stroke
c8
377 -296 0 489 3579 3393 3 MP
PP
0 sg
-377 -193 377 -296 0 489 3579 3393 4 MP stroke
c8
24 146 -108 -88 3579 2298 3 MP
PP
0 sg
84 -58 24 146 -108 -88 3579 2298 4 MP stroke
c8
-289 127 116 -402 3919 3130 3 MP
PP
0 sg
173 275 -289 127 116 -402 3919 3130 4 MP stroke
c8
72 9 -49 76 3495 2356 3 MP
PP
0 sg
-23 -85 72 9 -49 76 3495 2356 4 MP stroke
c8
-173 -275 340 63 3579 3067 3 MP
PP
0 sg
-167 212 -173 -275 340 63 3579 3067 4 MP stroke
c8
-353 -320 402 -31 2077 2087 3 MP
PP
0 sg
-49 351 -353 -320 402 -31 2077 2087 4 MP stroke
c8
-288 31 288 -295 1466 2501 3 MP
PP
0 sg
0 264 -288 31 288 -295 1466 2501 4 MP stroke
c8
-29 81 -82 -47 3768 2548 3 MP
PP
0 sg
111 -34 -29 81 -82 -47 3768 2548 4 MP stroke
c8
61 -47 23 85 3495 2356 3 MP
PP
0 sg
-84 -38 61 -47 23 85 3495 2356 4 MP stroke
c8
0 65 -78 -38 3657 2582 3 MP
PP
0 sg
78 -27 0 65 -78 -38 3657 2582 4 MP stroke
c8
-43 42 0 -42 3579 2501 3 MP
PP
0 sg
43 0 -43 42 0 -42 3579 2501 4 MP stroke
c8
0 43 -43 0 3622 2501 3 MP
PP
0 sg
43 -43 0 43 -43 0 3622 2501 4 MP stroke
c8
122 -4 -98 150 3471 2210 3 MP
PP
0 sg
-24 -146 122 -4 -98 150 3471 2210 4 MP stroke
c8
-43 43 -35 -81 3657 2582 3 MP
PP
0 sg
78 38 -43 43 -35 -81 3657 2582 4 MP stroke
c8
73 72 -122 4 3495 2356 3 MP
PP
0 sg
49 -76 73 72 -122 4 3495 2356 4 MP stroke
c8
-64 0 29 -81 3657 2582 3 MP
PP
0 sg
35 81 -64 0 29 -81 3657 2582 4 MP stroke
c8
143 -141 13 341 3217 2160 3 MP
PP
0 sg
-156 -200 143 -141 13 341 3217 2160 4 MP stroke
c8
189 -163 90 298 4033 3999 3 MP
PP
0 sg
-279 -135 189 -163 90 298 4033 3999 4 MP stroke
c8
0 264 -288 -233 1754 2206 3 MP
PP
0 sg
288 -31 0 264 -288 -233 1754 2206 4 MP stroke
c8
-368 35 80 -268 1754 2206 3 MP
PP
0 sg
288 233 -368 35 80 -268 1754 2206 4 MP stroke
c8
-221 -223 337 -179 3919 3130 3 MP
PP
0 sg
-116 402 -221 -223 337 -179 3919 3130 4 MP stroke
c8
355 -40 -48 419 2910 1781 3 MP
PP
0 sg
-307 -379 355 -40 -48 419 2910 1781 4 MP stroke
c8
-17 -105 128 71 3657 2582 3 MP
PP
0 sg
-111 34 -17 -105 128 71 3657 2582 4 MP stroke
c8
-13 -341 217 0 3013 2501 3 MP
PP
0 sg
-204 341 -13 -341 217 0 3013 2501 4 MP stroke
c8
76 459 -395 -158 4969 3218 3 MP
PP
0 sg
319 -301 76 459 -395 -158 4969 3218 4 MP stroke
c8
-280 -155 362 -224 3217 2160 3 MP
PP
0 sg
-82 379 -280 -155 362 -224 3217 2160 4 MP stroke
c8
-107 -227 250 75 3785 2653 3 MP
PP
0 sg
-143 152 -107 -227 250 75 3785 2653 4 MP stroke
c8
25 275 -264 0 2258 388 3 MP
PP
0 sg
239 -275 25 275 -264 0 2258 388 4 MP stroke
c8
111 -274 148 284 5280 4331 3 MP
PP
0 sg
-259 -10 111 -274 148 284 5280 4331 4 MP stroke
c8
182 -24 0 264 1466 1181 3 MP
PP
0 sg
-182 -240 182 -24 0 264 1466 1181 4 MP stroke
c8
-340 -63 340 -263 3579 3393 3 MP
PP
0 sg
0 326 -340 -63 340 -263 3579 3393 4 MP stroke
c8
-153 -274 264 0 5428 4615 3 MP
PP
0 sg
-111 274 -153 -274 264 0 5428 4615 4 MP stroke
c8
289 -127 -39 202 3785 2653 3 MP
PP
0 sg
-250 -75 289 -127 -39 202 3785 2653 4 MP stroke
c8
-192 35 62 -198 2550 805 3 MP
PP
0 sg
130 163 -192 35 62 -198 2550 805 4 MP stroke
c8
135 -197 104 279 4532 4336 3 MP
PP
0 sg
-239 -82 135 -197 104 279 4532 4336 4 MP stroke
c8
-274 44 0 -264 5692 3030 3 MP
PP
0 sg
274 220 -274 44 0 -264 5692 3030 4 MP stroke
c8
-136 -153 297 -46 1466 1181 3 MP
PP
0 sg
-161 199 -136 -153 297 -46 1466 1181 4 MP stroke
c8
274 -309 459 309 4959 2501 3 MP
PP
0 sg
-733 0 274 -309 459 309 4959 2501 4 MP stroke
c8
-153 -9 0 -265 5692 4615 3 MP
PP
0 sg
153 274 -153 -9 0 -265 5692 4615 4 MP stroke
c8
77 -385 211 234 1763 1135 3 MP
PP
0 sg
-288 151 77 -385 211 234 1763 1135 4 MP stroke
c8
230 -59 -20 255 4791 4163 3 MP
PP
0 sg
-210 -196 230 -59 -20 255 4791 4163 4 MP stroke
c8
259 -173 -24 332 4556 4004 3 MP
PP
0 sg
-235 -159 259 -173 -24 332 4556 4004 4 MP stroke
c8
265 0 -161 279 4532 4336 3 MP
PP
0 sg
-104 -279 265 0 -161 279 4532 4336 4 MP stroke
c8
0 265 -264 0 1730 388 3 MP
PP
0 sg
264 -265 0 265 -264 0 1730 388 4 MP stroke
c8
107 269 -321 -135 5692 3294 3 MP
PP
0 sg
214 -134 107 269 -321 -135 5692 3294 4 MP stroke
c8
-179 -58 183 -116 1627 982 3 MP
PP
0 sg
-4 174 -179 -58 183 -116 1627 982 4 MP stroke
c8
-77 -413 454 117 3579 3882 3 MP
PP
0 sg
-377 296 -77 -413 454 117 3579 3882 4 MP stroke
c8
377 193 -340 263 3919 3130 3 MP
PP
0 sg
-37 -456 377 193 -340 263 3919 3130 4 MP stroke
c8
-148 -284 264 0 5164 4615 3 MP
PP
0 sg
-116 284 -148 -284 264 0 5164 4615 4 MP stroke
c8
-35 -237 179 58 1631 808 3 MP
PP
0 sg
-144 179 -35 -237 179 58 1631 808 4 MP stroke
c8
-24 -385 361 206 3919 3130 3 MP
PP
0 sg
-337 179 -24 -385 361 206 3919 3130 4 MP stroke
c8
-140 249 -95 -292 2452 1234 3 MP
PP
0 sg
235 43 -140 249 -95 -292 2452 1234 4 MP stroke
c8
108 -57 -108 274 3579 1936 3 MP
PP
0 sg
0 -217 108 -57 -108 274 3579 1936 4 MP stroke
c8
-274 -220 321 -129 5371 3159 3 MP
PP
0 sg
-47 349 -274 -220 321 -129 5371 3159 4 MP stroke
c8
156 200 -254 -50 3471 2210 3 MP
PP
0 sg
98 -150 156 200 -254 -50 3471 2210 4 MP stroke
c8
89 219 -264 0 2787 388 3 MP
PP
0 sg
175 -219 89 219 -264 0 2787 388 4 MP stroke
c8
-321 129 0 -264 5692 3294 3 MP
PP
0 sg
321 135 -321 129 0 -264 5692 3294 4 MP stroke
c8
-175 219 12 -428 2775 816 3 MP
PP
0 sg
163 209 -175 219 12 -428 2775 816 4 MP stroke
c8
220 267 -264 0 3315 388 3 MP
PP
0 sg
44 -267 220 267 -264 0 3315 388 4 MP stroke
c8
-280 445 -209 -445 2688 2501 3 MP
PP
0 sg
489 0 -280 445 -209 -445 2688 2501 4 MP stroke
c8
49 -351 243 149 1834 1938 3 MP
PP
0 sg
-292 202 49 -351 243 149 1834 1938 4 MP stroke
c8
-44 267 -264 0 3579 388 3 MP
PP
0 sg
308 -267 -44 267 -264 0 3579 388 4 MP stroke
c8
-35 278 -229 -278 4107 4615 3 MP
PP
0 sg
264 0 -35 278 -229 -278 4107 4615 4 MP stroke
c8
0 733 -299 -455 3878 4337 3 MP
PP
0 sg
299 -278 0 733 -299 -455 3878 4337 4 MP stroke
c8
-128 -71 206 -52 3579 2705 3 MP
PP
0 sg
-78 123 -128 -71 206 -52 3579 2705 4 MP stroke
c8
108 -274 254 50 3217 2160 3 MP
PP
0 sg
-362 224 108 -274 254 50 3217 2160 4 MP stroke
c8
90 358 -370 -187 3579 1610 3 MP
PP
0 sg
280 -171 90 358 -370 -187 3579 1610 4 MP stroke
c8
143 -152 17 105 3768 2548 3 MP
PP
0 sg
-160 47 143 -152 17 105 3768 2548 4 MP stroke
c8
15 -47 82 47 3686 2501 3 MP
PP
0 sg
-97 0 15 -47 82 47 3686 2501 4 MP stroke
c8
244 -227 64 348 5384 3701 3 MP
PP
0 sg
-308 -121 244 -227 64 348 5384 3701 4 MP stroke
c8
308 121 -308 143 5692 3558 3 MP
PP
0 sg
0 -264 308 121 -308 143 5692 3558 4 MP stroke
c8
228 70 -193 137 2550 805 3 MP
PP
0 sg
-35 -207 228 70 -193 137 2550 805 4 MP stroke
c8
280 -445 122 414 2077 2087 3 MP
PP
0 sg
-402 31 280 -445 122 414 2077 2087 4 MP stroke
c8
15 446 -329 -172 3104 988 3 MP
PP
0 sg
314 -274 15 446 -329 -172 3104 988 4 MP stroke
c8
202 61 -239 275 2258 388 3 MP
PP
0 sg
37 -336 202 61 -239 275 2258 388 4 MP stroke
c8
0 -264 153 9 5539 4341 3 MP
PP
0 sg
-153 255 0 -264 153 9 5539 4341 4 MP stroke
c8
346 38 -282 310 5384 3701 3 MP
PP
0 sg
-64 -348 346 38 -282 310 5384 3701 4 MP stroke
c8
-182 288 -105 -272 1753 1693 3 MP
PP
0 sg
287 -16 -182 288 -105 -272 1753 1693 4 MP stroke
c8
-37 336 -162 -254 2420 642 3 MP
PP
0 sg
199 -82 -37 336 -162 -254 2420 642 4 MP stroke
c8
-198 187 -50 -351 2502 1585 3 MP
PP
0 sg
248 164 -198 187 -50 -351 2502 1585 4 MP stroke
c8
-314 274 -105 -435 3209 1423 3 MP
PP
0 sg
419 161 -314 274 -105 -435 3209 1423 4 MP stroke
c8
-101 256 -163 -256 5164 4615 3 MP
PP
0 sg
264 0 -101 256 -163 -256 5164 4615 4 MP stroke
c8
382 180 -324 250 4280 3336 3 MP
PP
0 sg
-58 -430 382 180 -324 250 4280 3336 4 MP stroke
c8
0 -265 274 -44 5418 2810 3 MP
PP
0 sg
-274 309 0 -265 274 -44 5418 2810 4 MP stroke
c8
138 -313 152 380 4817 2838 3 MP
PP
0 sg
-290 -67 138 -313 152 380 4817 2838 4 MP stroke
c8
-259 173 20 -255 4771 4418 3 MP
PP
0 sg
239 82 -259 173 20 -255 4771 4418 4 MP stroke
c8
-135 197 -129 -197 4900 4615 3 MP
PP
0 sg
264 0 -135 197 -129 -197 4900 4615 4 MP stroke
c8
153 -255 91 292 5448 4049 3 MP
PP
0 sg
-244 -37 153 -255 91 292 5448 4049 4 MP stroke
c8
373 102 -319 301 4969 3218 3 MP
PP
0 sg
-54 -403 373 102 -319 301 4969 3218 4 MP stroke
c8
-309 24 144 -179 1631 808 3 MP
PP
0 sg
165 155 -309 24 144 -179 1631 808 4 MP stroke
c8
-165 -155 165 -109 1466 917 3 MP
PP
0 sg
0 264 -165 -155 165 -109 1466 917 4 MP stroke
c8
279 135 -305 233 4338 3766 3 MP
PP
0 sg
26 -368 279 135 -305 233 4338 3766 4 MP stroke
c8
104 559 -347 -337 4817 2838 3 MP
PP
0 sg
243 -222 104 559 -347 -337 4817 2838 4 MP stroke
c8
-91 -292 259 10 5280 4331 3 MP
PP
0 sg
-168 282 -91 -292 259 10 5280 4331 4 MP stroke
c8
101 -348 210 196 4791 4163 3 MP
PP
0 sg
-311 152 101 -348 210 196 4791 4163 4 MP stroke
c8
370 183 -294 276 4574 3060 3 MP
PP
0 sg
-76 -459 370 183 -294 276 4574 3060 4 MP stroke
c8
435 -227 -110 227 4145 2501 3 MP
PP
0 sg
-325 0 435 -227 -110 227 4145 2501 4 MP stroke
c8
209 445 -383 -144 2862 2200 3 MP
PP
0 sg
174 -301 209 445 -383 -144 2862 2200 4 MP stroke
c8
408 196 -288 323 2790 1262 3 MP
PP
0 sg
-120 -519 408 196 -288 323 2790 1262 4 MP stroke
c8
145 0 -143 141 3373 2360 3 MP
PP
0 sg
-2 -141 145 0 -143 141 3373 2360 4 MP stroke
c8
-71 69 -26 -69 3472 2501 3 MP
PP
0 sg
97 0 -71 69 -26 -69 3472 2501 4 MP stroke
c8
-265 0 103 -254 2420 642 3 MP
PP
0 sg
162 254 -265 0 103 -254 2420 642 4 MP stroke
c8
-274 -8 167 -333 3104 988 3 MP
PP
0 sg
107 341 -274 -8 167 -333 3104 988 4 MP stroke
c8
-148 -404 290 67 4817 2838 3 MP
PP
0 sg
-142 337 -148 -404 290 67 4817 2838 4 MP stroke
c8
-140 -276 361 80 5023 3621 3 MP
PP
0 sg
-221 196 -140 -276 361 80 5023 3621 4 MP stroke
c8
-210 -259 222 -169 2775 816 3 MP
PP
0 sg
-12 428 -210 -259 222 -169 2775 816 4 MP stroke
c8
308 466 -308 267 3579 388 3 MP
PP
0 sg
0 -733 308 466 -308 267 3579 388 4 MP stroke
c8
-326 52 221 -324 1753 1693 3 MP
PP
0 sg
105 272 -326 52 221 -324 1753 1693 4 MP stroke
c8
-287 16 287 -280 1466 1973 3 MP
PP
0 sg
0 264 -287 16 287 -280 1466 1973 4 MP stroke
c8
402 -59 -138 313 5107 2905 3 MP
PP
0 sg
-264 -254 402 -59 -138 313 5107 2905 4 MP stroke
c8
142 -337 347 337 4470 2501 3 MP
PP
0 sg
-489 0 142 -337 347 337 4470 2501 4 MP stroke
c8
308 -143 -94 273 5478 3428 3 MP
PP
0 sg
-214 -130 308 -143 -94 273 5478 3428 4 MP stroke
c8
214 130 -214 134 5692 3294 3 MP
PP
0 sg
0 -264 214 130 -214 134 5692 3294 4 MP stroke
c8
204 -341 151 301 2862 2200 3 MP
PP
0 sg
-355 40 204 -341 151 301 2862 2200 4 MP stroke
c8
431 -275 -23 471 2502 1585 3 MP
PP
0 sg
-408 -196 431 -275 -23 471 2502 1585 4 MP stroke
c8
299 -358 120 519 2790 1262 3 MP
PP
0 sg
-419 -161 299 -358 120 519 2790 1262 4 MP stroke
c8
-389 0 82 -379 3217 2160 3 MP
PP
0 sg
307 379 -389 0 82 -379 3217 2160 4 MP stroke
c8
229 278 -245 40 4123 4297 3 MP
PP
0 sg
16 -318 229 278 -245 40 4123 4297 4 MP stroke
c8
-23 266 -220 -202 4532 4336 3 MP
PP
0 sg
243 -64 -23 266 -220 -202 4532 4336 4 MP stroke
c8
305 -233 77 413 3956 3586 3 MP
PP
0 sg
-382 -180 305 -233 77 413 3956 3586 4 MP stroke
c8
324 -250 37 456 3919 3130 3 MP
PP
0 sg
-361 -206 324 -250 37 456 3919 3130 4 MP stroke
c8
-206 52 39 -202 3746 2855 3 MP
PP
0 sg
167 150 -206 52 39 -202 3746 2855 4 MP stroke
c8
-167 -5 167 -212 3579 3067 3 MP
PP
0 sg
0 217 -167 -5 167 -212 3579 3067 4 MP stroke
c8
43 -42 18 60 3518 2441 3 MP
PP
0 sg
-61 -18 43 -42 18 60 3518 2441 4 MP stroke
c8
61 18 -61 47 3579 2394 3 MP
PP
0 sg
0 -65 61 18 -61 47 3579 2394 4 MP stroke
c8
-287 280 -81 -245 1834 1938 3 MP
PP
0 sg
368 -35 -287 280 -81 -245 1834 1938 4 MP stroke
c8
-80 268 -243 -149 2077 2087 3 MP
PP
0 sg
323 -119 -80 268 -243 -149 2077 2087 4 MP stroke
c8
2 141 -73 -72 3446 2432 3 MP
PP
0 sg
71 -69 2 141 -73 -72 3446 2432 4 MP stroke
c8
26 69 -72 -9 3518 2441 3 MP
PP
0 sg
46 -60 26 69 -72 -9 3518 2441 4 MP stroke
c8
166 103 -189 163 4312 4134 3 MP
PP
0 sg
23 -266 166 103 -189 163 4312 4134 4 MP stroke
c8
218 238 -245 -20 4583 3786 3 MP
PP
0 sg
27 -218 218 238 -245 -20 4583 3786 4 MP stroke
c8
235 159 -229 155 4785 3849 3 MP
PP
0 sg
-6 -314 235 159 -229 155 4785 3849 4 MP stroke
c8
79 390 -361 -80 5384 3701 3 MP
PP
0 sg
282 -310 79 390 -361 -80 5384 3701 4 MP stroke
c8
-264 0 219 -241 1775 629 3 MP
PP
0 sg
45 241 -264 0 219 -241 1775 629 4 MP stroke
c8
-166 -207 243 -178 1974 1369 3 MP
PP
0 sg
-77 385 -166 -207 243 -178 1974 1369 4 MP stroke
c8
214 -450 221 223 4035 2728 3 MP
PP
0 sg
-435 227 214 -450 221 223 4035 2728 4 MP stroke
c8
110 -227 107 227 3928 2501 3 MP
PP
0 sg
-217 0 110 -227 107 227 3928 2501 4 MP stroke
c8
-202 -61 170 -260 2051 984 3 MP
PP
0 sg
32 321 -202 -61 170 -260 2051 984 4 MP stroke
c8
95 292 -228 -70 2585 1012 3 MP
PP
0 sg
133 -222 95 292 -228 -70 2585 1012 4 MP stroke
c8
-165 109 4 -174 1627 982 3 MP
PP
0 sg
161 65 -165 109 4 -174 1627 982 4 MP stroke
c8
-161 -65 161 -199 1466 1181 3 MP
PP
0 sg
0 264 -161 -65 161 -199 1466 1181 4 MP stroke
c8
129 197 -230 59 5001 4359 3 MP
PP
0 sg
101 -256 129 197 -230 59 5001 4359 4 MP stroke
c8
311 -152 6 314 4785 3849 3 MP
PP
0 sg
-317 -162 311 -152 6 314 4785 3849 4 MP stroke
c8
-25 -275 244 34 1775 629 3 MP
PP
0 sg
-219 241 -25 -275 244 34 1775 629 4 MP stroke
c8
-45 -241 309 -24 1466 653 3 MP
PP
0 sg
-264 265 -45 -241 309 -24 1466 653 4 MP stroke
c8
-115 286 -211 -234 1974 1369 3 MP
PP
0 sg
326 -52 -115 286 -211 -234 1974 1369 4 MP stroke
c8
-221 324 -152 -367 2126 1736 3 MP
PP
0 sg
373 43 -221 324 -152 -367 2126 1736 4 MP stroke
c8
-248 -164 376 -151 2126 1736 3 MP
PP
0 sg
-128 315 -248 -164 376 -151 2126 1736 4 MP stroke
c8
-373 -43 292 -202 1834 1938 3 MP
PP
0 sg
81 245 -373 -43 292 -202 1834 1938 4 MP stroke
c8
-308 -466 475 133 3104 988 3 MP
PP
0 sg
-167 333 -308 -466 475 133 3104 988 4 MP stroke
c8
274 8 -54 259 3051 388 3 MP
PP
0 sg
-220 -267 274 8 -54 259 3051 388 4 MP stroke
c8
48 -419 383 144 2479 2056 3 MP
PP
0 sg
-431 275 48 -419 383 144 2479 2056 4 MP stroke
c8
23 -471 353 320 2126 1736 3 MP
PP
0 sg
-376 151 23 -471 353 320 2126 1736 4 MP stroke
c8
50 351 -338 -28 2790 1262 3 MP
PP
0 sg
288 -323 50 351 -338 -28 2790 1262 4 MP stroke
c8
-299 358 -90 -358 3299 1781 3 MP
PP
0 sg
389 0 -299 358 -90 -358 3299 1781 4 MP stroke
c8
193 -137 -63 300 2420 642 3 MP
PP
0 sg
-130 -163 193 -137 -63 300 2420 642 4 MP stroke
c8
192 -35 -103 254 2523 388 3 MP
PP
0 sg
-89 -219 192 -35 -103 254 2523 388 4 MP stroke
c8
178 320 -346 -38 5448 4049 3 MP
PP
0 sg
168 -282 178 320 -346 -38 5448 4049 4 MP stroke
c8
244 37 -244 227 5692 3822 3 MP
PP
0 sg
0 -264 244 37 -244 227 5692 3822 4 MP stroke
c8
-209 203 -32 -321 2051 984 3 MP
PP
0 sg
241 118 -209 203 -32 -321 2051 984 4 MP stroke
c8
136 218 -199 82 2420 642 3 MP
PP
0 sg
63 -300 136 218 -199 82 2420 642 4 MP stroke
c8
-235 -43 198 -187 2254 1421 3 MP
PP
0 sg
37 230 -235 -43 198 -187 2254 1421 4 MP stroke
c8
-280 -52 128 -315 2126 1736 3 MP
PP
0 sg
152 367 -280 -52 128 -315 2126 1736 4 MP stroke
c8
229 -155 -27 218 4583 3786 3 MP
PP
0 sg
-202 -63 229 -155 -27 218 4583 3786 4 MP stroke
c8
135 330 -373 -102 5023 3621 3 MP
PP
0 sg
238 -228 135 330 -373 -102 5023 3621 4 MP stroke
c8
47 -349 264 254 5107 2905 3 MP
PP
0 sg
-311 95 47 -349 264 254 5107 2905 4 MP stroke
c8
311 -95 148 404 4959 2501 3 MP
PP
0 sg
-459 -309 311 -95 148 404 4959 2501 4 MP stroke
c8
-244 130 24 -332 4532 4336 3 MP
PP
0 sg
220 202 -244 130 24 -332 4532 4336 4 MP stroke
c8
-243 64 161 -279 4371 4615 3 MP
PP
0 sg
82 215 -243 64 161 -279 4371 4615 4 MP stroke
c8
317 162 -238 228 5023 3621 3 MP
PP
0 sg
-79 -390 317 162 -238 228 5023 3621 4 MP stroke
c8
140 276 -234 -3 5478 3428 3 MP
PP
0 sg
94 -273 140 276 -234 -3 5478 3428 4 MP stroke
c8
24 385 -318 -109 4574 3060 3 MP
PP
0 sg
294 -276 24 385 -318 -109 4574 3060 4 MP stroke
c8
395 158 -243 222 4817 2838 3 MP
PP
0 sg
-152 -380 395 158 -243 222 4817 2838 4 MP stroke
c8
-62 198 -163 -209 2775 816 3 MP
PP
0 sg
225 11 -62 198 -163 -209 2775 816 4 MP stroke
c8
-225 -11 190 -196 2585 1012 3 MP
PP
0 sg
35 207 -225 -11 190 -196 2585 1012 4 MP stroke
c8
-107 -269 234 3 5244 3425 3 MP
PP
0 sg
-127 266 -107 -269 234 3 5244 3425 4 MP stroke
c8
127 -266 275 207 4969 3218 3 MP
PP
0 sg
-402 59 127 -266 275 207 4969 3218 4 MP stroke
c8
-297 46 115 -286 1648 1421 3 MP
PP
0 sg
182 240 -297 46 115 -286 1648 1421 4 MP stroke
c8
-182 24 182 -288 1466 1709 3 MP
PP
0 sg
0 264 -182 24 182 -288 1466 1709 4 MP stroke
c8
58 430 -370 -183 4650 3519 3 MP
PP
0 sg
312 -247 58 430 -370 -183 4650 3519 4 MP stroke
c8
-67 267 -135 -330 4785 3849 3 MP
PP
0 sg
202 63 -67 267 -135 -330 4785 3849 4 MP stroke
c8
-244 -34 209 -203 1810 866 3 MP
PP
0 sg
35 237 -244 -34 209 -203 1810 866 4 MP stroke
c8
-183 116 47 -269 1763 1135 3 MP
PP
0 sg
136 153 -183 116 47 -269 1763 1135 4 MP stroke
c8
116 -284 163 256 5001 4359 3 MP
PP
0 sg
-279 28 116 -284 163 256 5001 4359 4 MP stroke
c8
279 -28 -101 348 5102 4011 3 MP
PP
0 sg
-178 -320 279 -28 -101 348 5102 4011 4 MP stroke
c8
-306 42 140 -249 2217 1191 3 MP
PP
0 sg
166 207 -306 42 140 -249 2217 1191 4 MP stroke
c8
-243 178 -37 -230 2254 1421 3 MP
PP
0 sg
280 52 -243 178 -37 -230 2254 1421 4 MP stroke
c8
338 28 -133 222 2585 1012 3 MP
PP
0 sg
-205 -250 338 28 -133 222 2585 1012 4 MP stroke
c8
205 250 -190 196 2775 816 3 MP
PP
0 sg
-15 -446 205 250 -190 196 2775 816 4 MP stroke
c8
244 -130 -26 368 4338 3766 3 MP
PP
0 sg
-218 -238 244 -130 -26 368 4338 3766 4 MP stroke
c8
245 20 -312 247 4650 3519 3 MP
PP
0 sg
67 -267 245 20 -312 247 4650 3519 4 MP stroke
c8
-264 0 54 -259 2997 647 3 MP
PP
0 sg
210 259 -264 0 54 -259 2997 647 4 MP stroke
c8
-222 169 -107 -341 3104 988 3 MP
PP
0 sg
329 172 -222 169 -107 -341 3104 988 4 MP stroke
c8
0 -489 370 187 3209 1423 3 MP
PP
0 sg
-370 302 0 -489 370 187 3209 1423 4 MP stroke
c8
370 -302 105 435 3104 988 3 MP
PP
0 sg
-475 -133 370 -302 105 435 3104 988 4 MP stroke
c8
-136 -218 306 -42 2051 984 3 MP
PP
0 sg
-170 260 -136 -218 306 -42 2051 984 4 MP stroke
c8
-241 -118 288 -151 1763 1135 3 MP
PP
0 sg
-47 269 -241 -118 288 -151 1763 1135 4 MP stroke
/c9 { 0.000000 0.811765 1.000000 sr} bdef
c9
156 -344 264 0 1466 4615 3 MP
PP
0 sg
-420 344 156 -344 264 0 1466 4615 4 MP stroke
c9
77 -188 264 0 1994 4615 3 MP
PP
0 sg
-341 188 77 -188 264 0 1994 4615 4 MP stroke
c9
-46 54 -19 -136 3686 2501 3 MP
PP
0 sg
65 82 -46 54 -19 -136 3686 2501 4 MP stroke
c9
-188 -188 265 0 2258 4615 3 MP
PP
0 sg
-77 188 -188 -188 265 0 2258 4615 4 MP stroke
c9
0 145 -88 -212 3667 2365 3 MP
PP
0 sg
88 67 0 145 -88 -212 3667 2365 4 MP stroke
c9
292 -68 -96 315 2431 4112 3 MP
PP
0 sg
-196 -247 292 -68 -96 315 2431 4112 4 MP stroke
c9
-172 141 27 -141 3928 2501 3 MP
PP
0 sg
145 0 -172 141 27 -141 3928 2501 4 MP stroke
c9
104 -256 188 188 2335 4427 3 MP
PP
0 sg
-292 68 104 -256 188 188 2335 4427 4 MP stroke
c9
0 65 -42 -25 3621 2419 3 MP
PP
0 sg
42 -40 0 65 -42 -25 3621 2419 4 MP stroke
c9
-119 -363 264 0 3051 4615 3 MP
PP
0 sg
-145 363 -119 -363 264 0 3051 4615 4 MP stroke
c9
-383 -363 264 0 3315 4615 3 MP
PP
0 sg
119 363 -383 -363 264 0 3315 4615 4 MP stroke
c9
-383 370 0 -733 3579 4615 3 MP
PP
0 sg
383 363 -383 370 0 -733 3579 4615 4 MP stroke
c9
-56 43 -52 -59 3579 2609 3 MP
PP
0 sg
108 16 -56 43 -52 -59 3579 2609 4 MP stroke
c9
362 -99 -74 328 2505 3784 3 MP
PP
0 sg
-288 -229 362 -99 -74 328 2505 3784 4 MP stroke
c9
-119 -362 336 -45 2169 3829 3 MP
PP
0 sg
-217 407 -119 -362 336 -45 2169 3829 4 MP stroke
c9
-64 0 9 -49 3527 2550 3 MP
PP
0 sg
55 49 -64 0 9 -49 3527 2550 4 MP stroke
c9
166 -346 196 247 2431 4112 3 MP
PP
0 sg
-362 99 166 -346 196 247 2431 4112 4 MP stroke
c9
-85 -404 359 133 2386 3422 3 MP
PP
0 sg
-274 271 -85 -404 359 133 2386 3422 4 MP stroke
c9
-110 -5 0 -217 3579 3067 3 MP
PP
0 sg
110 222 -110 -5 0 -217 3579 3067 4 MP stroke
c9
-181 226 -128 -203 3313 2907 3 MP
PP
0 sg
309 -23 -181 226 -128 -203 3313 2907 4 MP stroke
c9
-142 -33 38 -131 3469 2845 3 MP
PP
0 sg
104 164 -142 -33 38 -131 3469 2845 4 MP stroke
c9
-72 9 0 -145 3579 2850 3 MP
PP
0 sg
72 136 -72 9 0 -145 3579 2850 4 MP stroke
c9
172 203 -217 0 3230 2501 3 MP
PP
0 sg
45 -203 172 203 -217 0 3230 2501 4 MP stroke
c9
-135 -180 180 -23 3185 2704 3 MP
PP
0 sg
-45 203 -135 -180 180 -23 3185 2704 4 MP stroke
c9
-72 -136 110 5 3469 2845 3 MP
PP
0 sg
-38 131 -72 -136 110 5 3469 2845 4 MP stroke
c9
-97 0 1 -92 3471 2593 3 MP
PP
0 sg
96 92 -97 0 1 -92 3471 2593 4 MP stroke
c9
-52 6 0 -65 3579 2609 3 MP
PP
0 sg
52 59 -52 6 0 -65 3579 2609 4 MP stroke
c9
-10 180 -96 -92 3471 2593 3 MP
PP
0 sg
106 -88 -10 180 -96 -92 3471 2593 4 MP stroke
c9
-9 49 -43 -43 3579 2544 3 MP
PP
0 sg
52 -6 -9 49 -43 -43 3579 2544 4 MP stroke
c9
-1 92 -55 -49 3527 2550 3 MP
PP
0 sg
56 -43 -1 92 -55 -49 3527 2550 4 MP stroke
c9
43 43 -43 0 3579 2501 3 MP
PP
0 sg
0 -43 43 43 -43 0 3579 2501 4 MP stroke
c9
0 42 -43 -42 3622 2501 3 MP
PP
0 sg
43 0 0 42 -43 -42 3622 2501 4 MP stroke
c9
1 82 -65 -82 3686 2501 3 MP
PP
0 sg
64 0 1 82 -65 -82 3686 2501 4 MP stroke
c9
43 42 -42 40 3621 2419 3 MP
PP
0 sg
-1 -82 43 42 -42 40 3621 2419 4 MP stroke
c9
19 136 -116 -136 3783 2501 3 MP
PP
0 sg
97 0 19 136 -116 -136 3783 2501 4 MP stroke
c9
42 25 0 96 3579 2298 3 MP
PP
0 sg
-42 -121 42 25 0 96 3579 2298 4 MP stroke
c9
94 -288 190 141 3955 2360 3 MP
PP
0 sg
-284 147 94 -288 190 141 3955 2360 4 MP stroke
c9
42 121 -88 -67 3667 2365 3 MP
PP
0 sg
46 -54 42 121 -88 -67 3667 2365 4 MP stroke
c9
-180 23 52 -226 3313 2907 3 MP
PP
0 sg
128 203 -180 23 52 -226 3313 2907 4 MP stroke
c9
168 -272 231 288 4239 2213 3 MP
PP
0 sg
-399 -16 168 -272 231 288 4239 2213 4 MP stroke
c9
88 212 -193 -149 3772 2302 3 MP
PP
0 sg
105 -63 88 212 -193 -149 3772 2302 4 MP stroke
c9
279 227 -338 72 5266 1229 3 MP
PP
0 sg
59 -299 279 227 -338 72 5266 1229 4 MP stroke
c9
0 217 -284 -209 3863 2145 3 MP
PP
0 sg
284 -8 0 217 -284 -209 3863 2145 4 MP stroke
c9
-145 0 10 -180 3365 2681 3 MP
PP
0 sg
135 180 -145 0 10 -180 3365 2681 4 MP stroke
c9
-52 226 -104 -164 3469 2845 3 MP
PP
0 sg
156 -62 -52 226 -104 -164 3469 2845 4 MP stroke
c9
-346 -240 733 0 4959 2501 3 MP
PP
0 sg
-387 240 -346 -240 733 0 4959 2501 4 MP stroke
c9
28 315 -273 -192 4644 580 3 MP
PP
0 sg
245 -123 28 315 -273 -192 4644 580 4 MP stroke
c9
-9 429 -172 -203 3185 2704 3 MP
PP
0 sg
181 -226 -9 429 -172 -203 3185 2704 4 MP stroke
c9
-156 62 -110 -222 3579 3067 3 MP
PP
0 sg
266 160 -156 62 -110 -222 3579 3067 4 MP stroke
c9
72 -105 36 121 3471 2593 3 MP
PP
0 sg
-108 -16 72 -105 36 121 3471 2593 4 MP stroke
c9
-37 371 -263 -281 3267 3211 3 MP
PP
0 sg
300 -90 -37 371 -263 -281 3267 3211 4 MP stroke
c9
-432 -252 405 -182 2226 2935 3 MP
PP
0 sg
27 434 -432 -252 405 -182 2226 2935 4 MP stroke
c9
-312 144 0 -326 3579 3393 3 MP
PP
0 sg
312 182 -312 144 0 -326 3579 3393 4 MP stroke
c9
-325 0 382 -252 2631 2753 3 MP
PP
0 sg
-57 252 -325 0 382 -252 2631 2753 4 MP stroke
c9
-210 422 -160 -552 2169 3829 3 MP
PP
0 sg
370 130 -210 422 -160 -552 2169 3829 4 MP stroke
c9
-760 -434 217 -342 2009 3277 3 MP
PP
0 sg
543 776 -760 -434 217 -342 2009 3277 4 MP stroke
c9
-336 45 74 -328 2431 4112 3 MP
PP
0 sg
262 283 -336 45 74 -328 2431 4112 4 MP stroke
c9
346 -24 -48 247 5394 2014 3 MP
PP
0 sg
-298 -223 346 -24 -48 247 5394 2014 4 MP stroke
c9
217 -407 160 552 2009 3277 3 MP
PP
0 sg
-377 -145 217 -407 160 552 2009 3277 4 MP stroke
c9
0 -264 298 223 5394 2014 3 MP
PP
0 sg
-298 41 0 -264 298 223 5394 2014 4 MP stroke
c9
-333 916 -87 -572 1886 4271 3 MP
PP
0 sg
420 -344 -333 916 -87 -572 1886 4271 4 MP stroke
c9
-353 -206 387 -240 4959 2501 3 MP
PP
0 sg
-34 446 -353 -206 387 -240 4959 2501 4 MP stroke
c9
0 2114 -333 -1198 1799 3699 3 MP
PP
0 sg
333 -916 0 2114 -333 -1198 1799 3699 4 MP stroke
c9
0 733 -355 -292 3934 680 3 MP
PP
0 sg
355 -441 0 733 -355 -292 3934 680 4 MP stroke
c9
19 -275 282 127 4906 1676 3 MP
PP
0 sg
-301 148 19 -275 282 127 4906 1676 4 MP stroke
c9
91 292 -264 0 4107 388 3 MP
PP
0 sg
173 -292 91 292 -264 0 4107 388 4 MP stroke
c9
760 434 -733 0 2199 2501 3 MP
PP
0 sg
-27 -434 760 434 -733 0 2199 2501 4 MP stroke
c9
492 -54 -340 432 3919 1504 3 MP
PP
0 sg
-152 -378 492 -54 -340 432 3919 1504 4 MP stroke
c9
312 -144 -46 304 3313 2907 3 MP
PP
0 sg
-266 -160 312 -144 -46 304 3313 2907 4 MP stroke
c9
-170 204 -28 -315 4399 703 3 MP
PP
0 sg
198 111 -170 204 -28 -315 4399 703 4 MP stroke
c9
-308 117 145 -363 3051 4615 3 MP
PP
0 sg
163 246 -308 117 145 -363 3051 4615 4 MP stroke
c9
365 107 -385 202 4304 1302 3 MP
PP
0 sg
20 -309 365 107 -385 202 4304 1302 4 MP stroke
c9
-417 -224 383 -370 3196 4252 3 MP
PP
0 sg
34 594 -417 -224 383 -370 3196 4252 4 MP stroke
c9
-177 -225 338 -72 4928 1301 3 MP
PP
0 sg
-161 297 -177 -225 338 -72 4928 1301 4 MP stroke
c9
-262 -283 268 -139 2163 4251 3 MP
PP
0 sg
-6 422 -262 -283 268 -139 2163 4251 4 MP stroke
c9
-189 226 0 -264 5692 1181 3 MP
PP
0 sg
189 38 -189 226 0 -264 5692 1181 4 MP stroke
c9
403 239 -369 355 3162 3658 3 MP
PP
0 sg
-34 -594 403 239 -369 355 3162 3658 4 MP stroke
c9
-256 192 -27 -355 4927 743 3 MP
PP
0 sg
283 163 -256 192 -27 -355 4927 743 4 MP stroke
c9
-105 447 -312 -182 3579 3393 3 MP
PP
0 sg
417 -265 -105 447 -312 -182 3579 3393 4 MP stroke
c9
-321 42 189 -226 5503 1143 3 MP
PP
0 sg
132 184 -321 42 189 -226 5503 1143 4 MP stroke
c9
264 0 -101 246 2888 4369 3 MP
PP
0 sg
-163 -246 264 0 -101 246 2888 4369 4 MP stroke
c9
-285 -105 259 -121 5207 785 3 MP
PP
0 sg
26 226 -285 -105 259 -121 5207 785 4 MP stroke
c9
-172 -176 341 -188 1994 4615 3 MP
PP
0 sg
-169 364 -172 -176 341 -188 1994 4615 4 MP stroke
c9
-226 276 0 -265 5692 653 3 MP
PP
0 sg
226 -11 -226 276 0 -265 5692 653 4 MP stroke
c9
160 256 -261 -10 2888 4369 3 MP
PP
0 sg
101 -246 160 256 -261 -10 2888 4369 4 MP stroke
c9
-247 171 -38 -276 5466 664 3 MP
PP
0 sg
285 105 -247 171 -38 -276 5466 664 4 MP stroke
c9
-277 20 169 -364 1994 4615 3 MP
PP
0 sg
108 344 -277 20 169 -364 1994 4615 4 MP stroke
c9
38 276 -264 0 5692 388 3 MP
PP
0 sg
226 -276 38 276 -264 0 5692 388 4 MP stroke
c9
-543 -776 210 -422 1799 3699 3 MP
PP
0 sg
333 1198 -543 -776 210 -422 1799 3699 4 MP stroke
c9
-284 8 91 -157 3772 2302 3 MP
PP
0 sg
193 149 -284 8 91 -157 3772 2302 4 MP stroke
c9
-105 63 -11 -199 3783 2501 3 MP
PP
0 sg
116 136 -105 63 -11 -199 3783 2501 4 MP stroke
c9
-492 54 208 -263 3863 2145 3 MP
PP
0 sg
284 209 -492 54 208 -263 3863 2145 4 MP stroke
c9
-190 -141 217 0 3928 2501 3 MP
PP
0 sg
-27 141 -190 -141 217 0 3928 2501 4 MP stroke
c9
0 -264 246 231 5446 1742 3 MP
PP
0 sg
-246 33 0 -264 246 231 5446 1742 4 MP stroke
c9
-192 244 0 -264 5692 1445 3 MP
PP
0 sg
192 20 -192 244 0 -264 5692 1445 4 MP stroke
c9
-59 299 -234 -196 5500 1425 3 MP
PP
0 sg
293 -103 -59 299 -234 -196 5500 1425 4 MP stroke
c9
-3 282 -189 -38 5692 1181 3 MP
PP
0 sg
192 -244 -3 282 -189 -38 5692 1181 4 MP stroke
c9
-309 23 46 -304 3267 3211 3 MP
PP
0 sg
263 281 -309 23 46 -304 3267 3211 4 MP stroke
c9
-300 90 105 -447 3162 3658 3 MP
PP
0 sg
195 357 -300 90 105 -447 3162 3658 4 MP stroke
c9
37 -371 307 150 2660 3151 3 MP
PP
0 sg
-344 221 37 -371 307 150 2660 3151 4 MP stroke
c9
432 252 -489 0 2688 2501 3 MP
PP
0 sg
57 -252 432 252 -489 0 2688 2501 4 MP stroke
c9
293 -332 168 331 4071 1882 3 MP
PP
0 sg
-461 1 293 -332 168 331 4071 1882 4 MP stroke
c9
-355 174 34 -446 4959 2501 3 MP
PP
0 sg
321 272 -355 174 34 -446 4959 2501 4 MP stroke
c9
-293 332 -106 -348 4638 2229 3 MP
PP
0 sg
399 16 -293 332 -106 -348 4638 2229 4 MP stroke
c9
-168 272 -321 -272 4959 2501 3 MP
PP
0 sg
489 0 -168 272 -321 -272 4959 2501 4 MP stroke
c9
-264 0 -91 -292 3934 680 3 MP
PP
0 sg
355 292 -264 0 -91 -292 3934 680 4 MP stroke
c9
340 -432 0 326 3579 1610 3 MP
PP
0 sg
-340 106 340 -432 0 326 3579 1610 4 MP stroke
c9
377 145 -217 342 2226 2935 3 MP
PP
0 sg
-160 -487 377 145 -217 342 2226 2935 4 MP stroke
c9
29 398 -373 -177 3004 2930 3 MP
PP
0 sg
344 -221 29 398 -373 -177 3004 2930 4 MP stroke
c9
376 68 -208 263 4071 1882 3 MP
PP
0 sg
-168 -331 376 68 -208 263 4071 1882 4 MP stroke
c9
-282 -127 195 -252 4993 2055 3 MP
PP
0 sg
87 379 -282 -127 195 -252 4993 2055 4 MP stroke
c9
0 -489 417 224 3162 3658 3 MP
PP
0 sg
-417 265 0 -489 417 224 3162 3658 4 MP stroke
c9
-48 -458 288 229 2505 3784 3 MP
PP
0 sg
-240 229 -48 -458 288 229 2505 3784 4 MP stroke
c9
-264 0 170 -204 4201 592 3 MP
PP
0 sg
94 204 -264 0 170 -204 4201 592 4 MP stroke
c9
128 -438 340 383 3579 1121 3 MP
PP
0 sg
-468 55 128 -438 340 383 3579 1121 4 MP stroke
c9
0 -264 226 253 5466 664 3 MP
PP
0 sg
-226 11 0 -264 226 253 5466 664 4 MP stroke
c9
-237 86 3 -282 5500 1425 3 MP
PP
0 sg
234 196 -237 86 3 -282 5500 1425 4 MP stroke
c9
-281 -171 254 -184 4927 743 3 MP
PP
0 sg
27 355 -281 -171 254 -184 4927 743 4 MP stroke
c9
-105 270 -132 -184 5503 1143 3 MP
PP
0 sg
237 -86 -105 270 -132 -184 5503 1143 4 MP stroke
c9
-264 0 256 -192 4644 580 3 MP
PP
0 sg
8 192 -264 0 256 -192 4644 580 4 MP stroke
c9
-252 10 161 -297 4928 1301 3 MP
PP
0 sg
91 287 -252 10 161 -297 4928 1301 4 MP stroke
c9
96 -315 172 176 2163 4251 3 MP
PP
0 sg
-268 139 96 -315 172 176 2163 4251 4 MP stroke
c9
-108 -344 264 0 1730 4615 3 MP
PP
0 sg
-156 344 -108 -344 264 0 1730 4615 4 MP stroke
c9
-264 0 247 -171 5181 559 3 MP
PP
0 sg
17 171 -264 0 247 -171 5181 559 4 MP stroke
c9
-95 295 -226 -253 5692 917 3 MP
PP
0 sg
321 -42 -95 295 -226 -253 5692 917 4 MP stroke
c9
-264 0 -17 -171 5181 559 3 MP
PP
0 sg
281 171 -264 0 -17 -171 5181 559 4 MP stroke
c9
-280 -42 118 -219 5089 1004 3 MP
PP
0 sg
162 261 -280 -42 118 -219 5089 1004 4 MP stroke
c9
264 0 -104 256 2627 4359 3 MP
PP
0 sg
-160 -256 264 0 -104 256 2627 4359 4 MP stroke
c9
261 10 -166 346 2793 4013 3 MP
PP
0 sg
-95 -356 261 10 -166 346 2793 4013 4 MP stroke
c9
308 -117 95 356 2793 4013 3 MP
PP
0 sg
-403 -239 308 -117 95 356 2793 4013 4 MP stroke
c9
417 103 -222 254 2967 3301 3 MP
PP
0 sg
-195 -357 417 103 -222 254 2967 3301 4 MP stroke
c9
0 -96 72 -9 3507 2714 3 MP
PP
0 sg
-72 105 0 -96 72 -9 3507 2714 4 MP stroke
c9
-36 -121 142 33 3365 2681 3 MP
PP
0 sg
-106 88 -36 -121 142 33 3365 2681 4 MP stroke
c9
401 -41 -195 252 5188 1803 3 MP
PP
0 sg
-206 -211 401 -41 -195 252 5188 1803 4 MP stroke
c9
-52 272 -246 -231 5692 1973 3 MP
PP
0 sg
298 -41 -52 272 -246 -231 5692 1973 4 MP stroke
c9
0 -264 346 240 5346 2261 3 MP
PP
0 sg
-346 24 0 -264 346 240 5346 2261 4 MP stroke
c9
48 -247 353 206 4993 2055 3 MP
PP
0 sg
-401 41 48 -247 353 206 4993 2055 4 MP stroke
c9
240 -229 119 362 2386 3422 3 MP
PP
0 sg
-359 -133 240 -229 119 362 2386 3422 4 MP stroke
c9
274 -271 160 487 2226 2935 3 MP
PP
0 sg
-434 -216 274 -271 160 487 2226 2935 4 MP stroke
c9
105 -270 177 225 5089 1004 3 MP
PP
0 sg
-282 45 105 -270 177 225 5089 1004 4 MP stroke
c9
254 126 -267 88 4201 592 3 MP
PP
0 sg
13 -214 254 126 -267 88 4201 592 4 MP stroke
c9
-173 292 -94 -204 4201 592 3 MP
PP
0 sg
267 -88 -173 292 -94 -204 4201 592 4 MP stroke
c9
-113 -386 468 -55 3579 1121 3 MP
PP
0 sg
-355 441 -113 -386 468 -55 3579 1121 4 MP stroke
c9
-164 -174 282 -45 5089 1004 3 MP
PP
0 sg
-118 219 -164 -174 282 -45 5089 1004 4 MP stroke
c9
297 -120 -14 283 4644 580 3 MP
PP
0 sg
-283 -163 297 -120 -14 283 4644 580 4 MP stroke
c9
-265 0 -8 -192 4644 580 3 MP
PP
0 sg
273 192 -265 0 -8 -192 4644 580 4 MP stroke
c9
-245 123 14 -283 4630 863 3 MP
PP
0 sg
231 160 -245 123 14 -283 4630 863 4 MP stroke
c9
-293 103 54 -317 5446 1742 3 MP
PP
0 sg
239 214 -293 103 54 -317 5446 1742 4 MP stroke
c9
192 284 -192 -20 5692 1445 3 MP
PP
0 sg
0 -264 192 284 -192 -20 5692 1445 4 MP stroke
c9
206 211 -258 61 5446 1742 3 MP
PP
0 sg
52 -272 206 211 -258 61 5446 1742 4 MP stroke
c9
246 -33 -54 317 5500 1425 3 MP
PP
0 sg
-192 -284 246 -33 -54 317 5500 1425 4 MP stroke
c9
434 216 -405 182 2631 2753 3 MP
PP
0 sg
-29 -398 434 216 -405 182 2631 2753 4 MP stroke
c9
373 177 -382 252 3013 2501 3 MP
PP
0 sg
9 -429 373 177 -382 252 3013 2501 4 MP stroke
c9
355 -174 106 348 4532 1881 3 MP
PP
0 sg
-461 -174 355 -174 106 348 4532 1881 4 MP stroke
c9
-268 121 22 -296 4608 1159 3 MP
PP
0 sg
246 175 -268 121 22 -296 4608 1159 4 MP stroke
c9
-91 157 -92 -215 3955 2360 3 MP
PP
0 sg
183 58 -91 157 -92 -215 3955 2360 4 MP stroke
c9
-94 288 -231 -288 4470 2501 3 MP
PP
0 sg
325 0 -94 288 -231 -288 4470 2501 4 MP stroke
c9
257 236 -315 82 4362 984 3 MP
PP
0 sg
58 -318 257 236 -315 82 4362 984 4 MP stroke
c9
-340 -383 340 -106 3579 1610 3 MP
PP
0 sg
0 489 -340 -383 340 -106 3579 1610 4 MP stroke
c9
-91 -287 320 142 4608 1159 3 MP
PP
0 sg
-229 145 -91 -287 320 142 4608 1159 4 MP stroke
c9
-374 205 -87 -379 4993 2055 3 MP
PP
0 sg
461 174 -374 205 -87 -379 4993 2055 4 MP stroke
c9
369 -355 48 458 2745 3555 3 MP
PP
0 sg
-417 -103 369 -355 48 458 2745 3555 4 MP stroke
c9
222 -254 85 404 2660 3151 3 MP
PP
0 sg
-307 -150 222 -254 85 404 2660 3151 4 MP stroke
c9
-297 120 90 -271 4837 1014 3 MP
PP
0 sg
207 151 -297 120 90 -271 4837 1014 4 MP stroke
c9
141 -260 113 386 3934 680 3 MP
PP
0 sg
-254 -126 141 -260 113 386 3934 680 4 MP stroke
c9
-162 -261 252 -10 4837 1014 3 MP
PP
0 sg
-90 271 -162 -261 252 -10 4837 1014 4 MP stroke
c9
37 -281 174 178 4188 806 3 MP
PP
0 sg
-211 103 37 -281 174 178 4188 806 4 MP stroke
c9
6 -422 277 -20 1886 4271 3 MP
PP
0 sg
-283 442 6 -422 277 -20 1886 4271 4 MP stroke
c9
283 -442 87 572 1799 3699 3 MP
PP
0 sg
-370 -130 283 -442 87 572 1799 3699 4 MP stroke
c9
-22 375 -279 -227 5207 1528 3 MP
PP
0 sg
301 -148 -22 375 -279 -227 5207 1528 4 MP stroke
c9
-19 275 -239 -214 5446 1742 3 MP
PP
0 sg
258 -61 -19 275 -239 -214 5446 1742 4 MP stroke
c9
-376 -68 284 -147 3955 2360 3 MP
PP
0 sg
92 215 -376 -68 284 -147 3955 2360 4 MP stroke
c9
-183 -58 172 -141 3783 2501 3 MP
PP
0 sg
11 199 -183 -58 172 -141 3783 2501 4 MP stroke
c9
-128 438 -257 -236 4304 1302 3 MP
PP
0 sg
385 -202 -128 438 -257 -236 4304 1302 4 MP stroke
c9
211 -103 -13 214 4201 592 3 MP
PP
0 sg
-198 -111 211 -103 -13 214 4201 592 4 MP stroke
c9
95 -295 164 174 5207 785 3 MP
PP
0 sg
-259 121 95 -295 164 174 5207 785 4 MP stroke
c9
-26 -226 280 42 4927 743 3 MP
PP
0 sg
-254 184 -26 -226 280 42 4927 743 4 MP stroke
c9
-141 260 -174 -178 4362 984 3 MP
PP
0 sg
315 -82 -141 260 -174 -178 4362 984 4 MP stroke
c9
-290 -187 310 -122 4284 1611 3 MP
PP
0 sg
-20 309 -290 -187 310 -122 4284 1611 4 MP stroke
c9
374 -205 -62 392 4594 1489 3 MP
PP
0 sg
-312 -187 374 -205 -62 392 4594 1489 4 MP stroke
c9
312 187 -334 188 4928 1301 3 MP
PP
0 sg
22 -375 312 187 -334 188 4928 1301 4 MP stroke
c9
-58 318 -246 -175 4608 1159 3 MP
PP
0 sg
304 -143 -58 318 -246 -175 4608 1159 4 MP stroke
c9
-14 330 -320 -142 4928 1301 3 MP
PP
0 sg
334 -188 -14 330 -320 -142 4928 1301 4 MP stroke
c9
152 378 -365 -107 4284 1611 3 MP
PP
0 sg
213 -271 152 378 -365 -107 4284 1611 4 MP stroke
c9
290 187 -304 143 4608 1159 3 MP
PP
0 sg
14 -330 290 187 -304 143 4608 1159 4 MP stroke
c9
-37 281 -231 -160 4630 863 3 MP
PP
0 sg
268 -121 -37 281 -231 -160 4630 863 4 MP stroke
c9
-22 296 -207 -151 4837 1014 3 MP
PP
0 sg
229 -145 -22 296 -207 -151 4837 1014 4 MP stroke
c9
461 -1 -213 271 4284 1611 3 MP
PP
0 sg
-248 -270 461 -1 -213 271 4284 1611 4 MP stroke
c9
248 270 -310 122 4594 1489 3 MP
PP
0 sg
62 -392 248 270 -310 122 4594 1489 4 MP stroke
gr


end %%Color Dict

eplot
%%EndObject

epage
end

showpage

%%Trailer
%%EOF
