\BOOKMARK [2][]{Outline0.1}{\376\377\000S\000e\000c\000t\000i\000o\000n\000\040\0001}{}% 1
\BOOKMARK [2][]{Outline0.2}{\376\377\000S\000e\000c\000t\000i\000o\000n\000\040\0002}{}% 2
\BOOKMARK [3][]{Outline0.2.1.10}{\376\377\000S\000o\000u\000s\000s\000e\000c\000t\000i\000o\000n\000\040\0002\000.\0001}{Outline0.2}% 3
