%!PS-Adobe-2.0 EPSF-2.0
%%Title: Leps3.fig
%%Creator: fig2dev Version 3.2 Patchlevel 4
%%CreationDate: Wed May 21 17:27:40 2008
%%For: Lohrengel@PcLohrengel (U-PCLOHRENGEL\Lohrengel,S-1-5-21-965759893-674411120-420221014-1005)
%%BoundingBox: 0 0 291 291
%%Magnification: 1.0000
%%EndComments
/$F2psDict 200 dict def
$F2psDict begin
$F2psDict /mtrx matrix put
/col-1 {0 setgray} bind def
/col0 {0.000 0.000 0.000 srgb} bind def
/col1 {0.000 0.000 1.000 srgb} bind def
/col2 {0.000 1.000 0.000 srgb} bind def
/col3 {0.000 1.000 1.000 srgb} bind def
/col4 {1.000 0.000 0.000 srgb} bind def
/col5 {1.000 0.000 1.000 srgb} bind def
/col6 {1.000 1.000 0.000 srgb} bind def
/col7 {1.000 1.000 1.000 srgb} bind def
/col8 {0.000 0.000 0.560 srgb} bind def
/col9 {0.000 0.000 0.690 srgb} bind def
/col10 {0.000 0.000 0.820 srgb} bind def
/col11 {0.530 0.810 1.000 srgb} bind def
/col12 {0.000 0.560 0.000 srgb} bind def
/col13 {0.000 0.690 0.000 srgb} bind def
/col14 {0.000 0.820 0.000 srgb} bind def
/col15 {0.000 0.560 0.560 srgb} bind def
/col16 {0.000 0.690 0.690 srgb} bind def
/col17 {0.000 0.820 0.820 srgb} bind def
/col18 {0.560 0.000 0.000 srgb} bind def
/col19 {0.690 0.000 0.000 srgb} bind def
/col20 {0.820 0.000 0.000 srgb} bind def
/col21 {0.560 0.000 0.560 srgb} bind def
/col22 {0.690 0.000 0.690 srgb} bind def
/col23 {0.820 0.000 0.820 srgb} bind def
/col24 {0.500 0.190 0.000 srgb} bind def
/col25 {0.630 0.250 0.000 srgb} bind def
/col26 {0.750 0.380 0.000 srgb} bind def
/col27 {1.000 0.500 0.500 srgb} bind def
/col28 {1.000 0.630 0.630 srgb} bind def
/col29 {1.000 0.750 0.750 srgb} bind def
/col30 {1.000 0.880 0.880 srgb} bind def
/col31 {1.000 0.840 0.000 srgb} bind def

end
save
newpath 0 291 moveto 0 0 lineto 291 0 lineto 291 291 lineto closepath clip newpath
-142.7 433.3 translate
1 -1 scale

/cp {closepath} bind def
/ef {eofill} bind def
/gr {grestore} bind def
/gs {gsave} bind def
/sa {save} bind def
/rs {restore} bind def
/l {lineto} bind def
/m {moveto} bind def
/rm {rmoveto} bind def
/n {newpath} bind def
/s {stroke} bind def
/sh {show} bind def
/slc {setlinecap} bind def
/slj {setlinejoin} bind def
/slw {setlinewidth} bind def
/srgb {setrgbcolor} bind def
/rot {rotate} bind def
/sc {scale} bind def
/sd {setdash} bind def
/ff {findfont} bind def
/sf {setfont} bind def
/scf {scalefont} bind def
/sw {stringwidth} bind def
/tr {translate} bind def
/tnt {dup dup currentrgbcolor
  4 -2 roll dup 1 exch sub 3 -1 roll mul add
  4 -2 roll dup 1 exch sub 3 -1 roll mul add
  4 -2 roll dup 1 exch sub 3 -1 roll mul add srgb}
  bind def
/shd {dup dup currentrgbcolor 4 -2 roll mul 4 -2 roll mul
  4 -2 roll mul srgb} bind def
 /DrawEllipse {
	/endangle exch def
	/startangle exch def
	/yrad exch def
	/xrad exch def
	/y exch def
	/x exch def
	/savematrix mtrx currentmatrix def
	x y tr xrad yrad sc 0 0 1 startangle endangle arc
	closepath
	savematrix setmatrix
	} def

/$F2psBegin {$F2psDict begin /$F2psEnteredState save def} def
/$F2psEnd {$F2psEnteredState restore end} def

$F2psBegin
10 setmiterlimit
0 slj 0 slc
 0.06000 0.06000 sc
%
% Fig objects follow
%
% 
% here starts figure with depth 50
/Times-Roman ff 180.00 scf sf
2625 4725 m
gs 1 -1 sc (23) col0 sh gr
% Polyline
15.000 slw
 [60] 0 sd
n 2400 4800 m 4800 4800 l
 4800 2400 l gs col0 s gr  [] 0 sd
% Polyline
7.500 slw
n 4800 2400 m 7200 2400 l 7200 4800 l 4800 4800 l
 cp gs col11 1.00 shd ef gr gs col7 s gr 
% Polyline
n 2400 4800 m 4800 4800 l 4800 7200 l 2400 7200 l
 cp gs col11 1.00 shd ef gr gs col7 s gr 
% Polyline
15.000 slw
n 2400 4800 m 2400 2400 l 7200 2400 l 7200 4800 l 4800 4800 l 4800 7200 l
 2475 7200 l 2400 7200 l
 cp gs col0 s gr 
/Symbol ff 360.00 scf sf
3525 3675 m
gs 1 -1 sc (W) col0 sh gr
/Symbol ff 360.00 scf sf
5850 3675 m
gs 1 -1 sc (W) col0 sh gr
/Symbol ff 360.00 scf sf
3525 6075 m
gs 1 -1 sc (W) col0 sh gr
/Times-Roman ff 180.00 scf sf
3825 3750 m
gs 1 -1 sc (2) col0 sh gr
/Times-Roman ff 180.00 scf sf
3825 6150 m
gs 1 -1 sc (3) col0 sh gr
/Times-Roman ff 180.00 scf sf
6150 3750 m
gs 1 -1 sc (1) col0 sh gr
/Times-Roman ff 330.00 scf sf
4950 4650 m
gs 1 -1 sc (S) col0 sh gr
/Times-Roman ff 270.00 scf sf
4875 2775 m
gs 1 -1 sc (F) col0 sh gr
/Times-Roman ff 180.00 scf sf
5025 2850 m
gs 1 -1 sc (12) col0 sh gr
/Times-Roman ff 270.00 scf sf
2475 4650 m
gs 1 -1 sc (F) col0 sh gr
% Ellipse
7.500 slw
n 4800 4800 75 75 0 360 DrawEllipse gs 0.00 setgray ef gr gs col0 s gr

% here ends figure;
$F2psEnd
rs
showpage
